138
144
144
145
147
173
175
175
169
173
172
171
171
175
172
172
173
175
147
171
168
163
169
177
172
147
144
172
148
167
157
174
175
174
162
173
174
170
172
177
174
175
178
171
175
170
155
173
170
173
176
174
178
167
173
171
171
174
173
175
175
177
174
177
177
178
178
173
171
170
173
176
176
144
144
171
149
172
176
174
175
169
177
173
176
175
146
168
170
175
176
178
175
172
173
175
177
175
175
175
176
176
168
175
174
170
167
139
177
145
147
149
173
170
148
171
173
172
173
173
176
173
140
147
148
171
175
174
170
175
176
173
174
174
172
171
177
152
175
169
177
160
174
159
174
171
175
175
177
171
169
173
171
175
171
175
170
175
175
172
174
172
177
176
153
159
174
173
175
171
174
172
175
169
170
174
173
170
171
173
172
177
172
177
148
172
172
169
173
160
177
154
174
174
172
177
178
176
171
172
174
172
177
175
172
177
177
171
173
172
173
175
174
176
173
172
178
178
176
173
175
176
175
173
170
168
176
172
171
174
160
174
173
173
174
173
175
155
176
172
140
168
156
175
176
177
175
173
158
174
177
172
173
173
144
173
149
176
173
177
174
173
176
177
155
145
178
156
173
172
160
177
175
177
176
169
172
155
175
168
175
175
177
171
173
174
176
172
178
171
174
178
171
177
164
143
167
166
176
173
176
173
172
174
166
175
176
169
173
175
173
176
176
173
146
172
175
175
176
177
172
171
177
156
177
150
175
178
177
164
176
177
176
175
175
171
169
173
173
174
173
170
174
169
176
170
176
174
148
155
174
178
176
174
163
178
167
172
170
158
167
172
175
177
171
173
169
173
173
176
174
176
174
176
172
172
174
174
177
173
174
171
171
172
175
175
172
145
154
173
173
160
172
177
175
175
172
175
177
177
176
149
175
175
176
178
176
156
175
172
154
176
174
175
173
177
176
171
164
150
178
175
175
177
172
173
176
174
165
170
171
162
178
173
177
178
173
173
176
168
173
172
145
145
169
153
173
152
174
175
176
175
167
145
136
146
147
173
173
174
169
173
155
176
177
171
171
177
172
173
176
167
175
177
174
171
176
171
172
150
175
172
172
177
175
168
174
170
170
171
172
175
171
176
147
146
171
172
173
169
173
176
173
172
174
178
175
155
175
175
170
174
170
171
157
166
176
163
174
177
174
176
170
177
172
160
171
171
176
178
172
174
171
176
175
173
140
172
149
174
174
171
176
167
145
175
171
175
174
175
175
148
173
170
149
174
171
143
147
143
147
169
172
167
176
174
177
173
170
177
171
174
176
177
171
174
176
166
171
177
171
175
173
172
172
170
168
175
175
176
173
174
175
176
173
175
154
176
169
173
173
173
176
171
173
176
152
173
174
173
174
176
138
146
167
174
176
172
176
159
175
175
178
174
177
148
168
176
150
173
175
175
163
175
171
178
172
152
177
171
175
176
172
172
177
153
175
177
174
178
175
176
172
149
172
170
177
173
171
175
173
178
172
170
173
174
170
169
172
171
176
171
177
172
176
172
178
176
171
171
177
172
175
165
174
171
177
173
172
151
169
153
151
147
174
161
175
154
175
177
177
166
174
175
174
169
175
174
149
170
168
174
176
174
177
178
171
174
175
173
162
172
174
160
171
153
176
177
177
176
175
174
172
170
161
163
176
175
175
171
173
171
167
174
162
169
176
176
156
171
175
178
173
159
177
168
171
172
149
173
146
173
175
175
175
172
170
175
177
167
174
173
174
169
172
175
171
174
168
162
176
175
174
170
173
174
177
173
178
152
177
173
176
172
174
177
178
176
175
175
165
168
174
172
174
173
168
172
163
156
170
178
146
170
171
174
173
173
177
161
171
173
171
176
173
145
174
177
169
177
163
174
171
174
176
176
175
173
145
149
171
174
176
176
154
171
160
175
172
174
168
173
177
174
172
171
172
175
173
177
174
174
172
174
174
174
173
159
178
144
143
147
168
166
174
173
172
172
176
170
173
173
175
165
153
177
175
175
173
171
171
177
175
168
177
177
169
176
175
175
173
173
168
175
172
175
177
147
174
178
176
177
177
170
152
173
178
174
173
152
175
171
177
176
150
173
166
155
173
173
178
176
137
149
162
171
167
173
171
174
176
172
175
172
172
177
178
177
172
175
161
176
176
174
172
174
170
176
175
169
172
171
178
177
176
172
151
171
173
174
176
173
171
174
176
176
171
174
171
177
170
170
172
175
172
169
173
173
172
175
173
174
150
173
174
174
177
173
150
173
175
176
175
169
175
178
175
176
172
169
175
176
172
176
174
171
172
175
164
173
145
171
169
173
153
173
177
176
178
177
161
174
175
171
177
172
176
177
177
176
174
174
175
177
175
176
175
162
173
175
174
177
176
174
172
169
175
176
173
152
172
172
169
175
176
170
170
169
177
173
175
178
159
171
176
177
176
171
170
176
168
175
175
173
161
171
171
176
174
177
147
173
171
170
173
173
172
171
175
173
176
174
177
174
175
174
172
141
143
166
172
172
172
173
174
173
173
175
176
172
168
165
175
172
177
175
174
147
175
173
175
177
170
173
178
175
176
178
171
178
174
156
143
171
174
174
154
170
176
174
173
169
174
174
175
177
176
173
174
166
171
177
177
173
173
163
174
174
172
169
173
172
176
172
171
175
170
169
173
172
177
170
175
177
176
173
156
174
178
163
171
173
174
177
175
175
175
173
177
175
166
170
170
177
175
172
173
173
174
174
170
172
170
177
172
173
173
176
175
162
172
176
176
171
154
172
175
175
174
174
171
173
177
171
176
173
175
171
176
173
174
168
175
168
142
143
140
168
172
173
176
171
170
176
175
175
170
175
175
172
172
171
175
173
175
174
172
170
173
178
174
176
177
175
158
176
143
153
173
176
175
172
175
167
174
172
158
173
175
176
176
167
172
176
176
177
169
175
175
176
154
177
174
176
175
175
160
172
170
170
164
177
171
175
174
157
162
174
172
176
176
152
175
176
175
174
150
135
172
173
169
175
168
177
177
172
169
150
176
170
172
174
174
175
177
177
169
174
172
173
176
174
174
155
172
173
172
154
176
163
174
175
171
172
175
172
159
172
173
172
175
170
164
162
177
168
177
151
176
167
175
174
165
168
172
172
174
162
174
169
176
174
141
174
159
175
171
178
173
178
174
173
177
175
171
175
175
173
172
176
141
174
174
151
175
176
171
166
171
175
175
178
177
175
175
175
178
172
171
173
173
168
174
173
159
172
174
174
173
175
158
175
174
176
173
178
177
177
171
161
173
173
159
175
173
174
173
176
177
136
139
142
142
145
144
171
152
170
167
171
177
174
158
172
171
169
167
162
174
177
174
172
170
174
148
152
147
168
173
172
170
176
169
172
160
172
174
176
176
175
174
173
178
174
168
175
176
175
171
169
165
173
168
175
173
169
176
174
175
172
167
152
172
175
152
176
176
175
173
174
175
176
175
170
158
173
175
173
173
174
168
170
169
165
150
176
175
151
175
154
166
154
174
176
145
171
169
175
161
173
173
176
151
143
169
174
172
172
174
176
172
139
139
144
171
172
172
145
157
170
176
172
174
156
173
173
174
178
176
174
146
173
170
172
174
175
159
174
171
169
171
145
167
178
140
144
171
172
168
174
174
174
170
174
175
177
170
169
168
173
174
169
178
174
173
177
173
176
173
170
155
159
173
176
176
172
176
176
171
174
178
177
177
175
168
174
174
175
175
173
155
175
174
176
175
172
170
171
172
173
177
175
170
173
176
174
171
171
174
176
170
176
175
177
170
173
176
172
175
173
174
154
172
174
172
170
173
169
176
178
174
176
173
151
174
171
174
172
171
173
174
173
176
175
173
174
171
173
174
174
173
151
176
173
145
165
155
172
174
169
176
145
175
176
174
175
174
144
149
171
173
155
172
176
170
169
176
174
172
174
174
173
171
176
174
176
156
173
167
173
175
175
174
175
173
171
172
174
178
173
178
171
174
171
174
177
174
173
174
175
174
172
171
177
173
172
177
175
160
177
168
176
176
176
153
177
173
177
175
175
176
143
145
167
174
173
174
173
172
176
173
174
177
174
171
169
173
174
148
166
172
174
173
171
171
172
175
173
177
174
177
175
172
171
159
172
176
174
172
177
176
174
165
176
173
154
175
175
172
176
175
170
170
174
164
175
173
173
173
177
176
175
173
176
175
174
175
147
170
177
177
149
175
171
174
175
175
174
175
173
177
175
167
175
174
173
171
174
175
175
175
163
165
170
176
177
166
172
172
175
176
176
175
163
172
171
171
175
169
170
171
175
176
176
173
176
170
174
175
175
178
147
148
168
173
172
176
172
177
169
172
156
170
172
141
175
175
173
170
174
172
177
176
173
140
146
140
144
145
174
175
173
173
172
173
169
172
171
171
177
176
170
173
172
175
177
176
173
176
173
157
176
176
177
168
166
176
172
175
176
168
175
151
169
177
175
145
145
143
159
174
151
174
161
174
174
177
144
173
171
173
176
160
154
173
173
171
174
174
173
174
174
173
176
172
175
175
169
172
172
176
178
172
168
175
170
172
168
173
178
176
154
173
173
176
157
174
175
177
145
175
174
173
172
174
173
176
173
174
175
171
151
173
176
177
176
176
172
172
176
176
171
168
172
173
173
151
173
167
177
177
170
173
172
175
174
178
162
150
177
173
171
173
163
155
177
176
170
175
176
175
169
175
173
157
178
176
170
174
173
153
173
150
147
176
177
175
175
175
174
176
175
169
172
177
173
170
175
174
174
172
173
177
178
172
175
172
172
171
153
169
170
171
171
169
174
164
176
176
176
175
168
174
177
176
173
166
174
174
176
174
147
171
171
175
172
176
177
169
172
175
151
175
141
141
141
148
146
171
170
168
175
171
169
175
170
155
177
175
176
168
173
166
173
157
162
145
174
175
166
153
175
176
151
170
172
172
171
176
175
167
176
152
175
157
175
176
170
173
175
174
176
165
172
170
171
175
177
175
174
176
174
173
146
167
148
171
171
173
174
151
175
149
171
176
178
172
159
174
177
173
174
175
176
172
178
177
173
173
173
164
176
138
143
174
149
173
173
171
174
174
174
161
167
169
175
153
177
172
172
174
171
175
176
175
176
174
172
173
173
177
172
177
175
172
175
172
175
176
177
174
173
175
172
172
174
175
157
172
174
173
161
173
175
175
173
175
174
174
176
172
172
174
172
172
176
173
175
176
178
169
155
175
161
177
171
167
176
175
176
175
148
172
170
173
176
174
152
174
174
178
150
177
177
174
171
165
172
174
172
170
173
174
175
173
162
172
141
171
174
175
171
176
149
175
173
173
172
172
165
177
138
141
146
139
145
143
171
175
172
176
169
171
173
176
176
177
171
174
176
174
175
174
173
175
147
173
174
169
174
177
172
176
171
177
172
171
175
170
173
176
176
177
173
172
168
162
152
177
145
143
154
171
172
172
176
174
176
169
172
176
177
174
147
174
175
171
172
173
174
173
174
178
174
174
172
169
175
176
176
174
173
168
171
175
176
172
175
175
175
178
174
174
174
175
174
172
176
177
174
169
173
177
176
173
174
149
176
173
176
174
177
153
176
175
174
152
172
156
176
172
173
175
173
173
177
174
174
175
176
172
153
170
178
174
173
175
173
152
174
172
173
157
173
176
176
172
173
170
174
174
175
154
177
176
176
176
174
177
172
170
171
175
173
175
171
172
170
161
150
169
174
175
175
175
175
148
173
173
172
158
173
172
176
176
172
170
177
177
176
175
174
157
176
177
144
147
144
147
171
171
169
172
175
175
178
175
175
151
178
174
178
170
174
168
173
167
174
145
174
168
170
176
176
144
141
141
148
171
172
172
175
173
178
175
175
169
174
178
176
174
177
151
176
176
177
156
177
170
175
173
173
165
173
177
173
157
142
169
170
174
173
174
176
171
173
171
176
167
171
176
143
143
143
142
169
172
174
173
175
177
173
174
171
176
173
172
175
172
174
167
173
175
171
173
175
176
177
173
175
176
170
174
173
151
158
177
153
173
173
148
170
160
177
161
174
174
172
176
176
171
177
172
175
169
175
172
172
148
176
176
174
171
145
176
174
172
173
161
171
174
173
161
172
172
176
170
174
175
174
177
173
174
174
170
176
173
172
169
169
176
171
174
175
174
175
152
171
174
174
177
178
173
174
176
173
174
149
172
171
175
176
175
173
159
174
149
170
157
166
176
176
176
151
175
172
173
177
167
171
172
172
175
175
174
172
176
178
175
175
175
176
177
172
174
170
172
173
174
177
174
175
177
176
177
175
176
177
176
173
147
176
175
175
169
174
175
173
145
167
168
172
157
173
173
175
172
171
170
169
141
173
175
141
143
170
171
171
176
168
172
174
171
174
177
147
172
173
176
174
173
168
162
173
170
166
172
171
172
172
168
174
157
178
171
174
171
172
175
174
174
174
172
173
177
176
175
176
171
175
175
152
175
173
177
177
175
177
174
173
178
174
175
173
163
175
170
173
178
156
175
175
154
170
171
176
150
173
178
176
174
175
172
150
175
170
177
175
170
173
170
171
177
176
171
171
172
173
176
163
174
158
171
176
175
175
156
175
174
177
174
174
172
173
174
174
171
177
176
174
164
174
173
175
175
173
174
172
151
176
170
151
175
177
178
176
172
172
173
175
173
169
176
174
171
171
174
176
177
175
171
173
176
171
157
173
174
172
174
174
177
174
169
173
172
173
177
165
177
177
173
174
159
171
176
174
173
173
175
174
174
158
172
170
175
165
147
172
175
174
175
173
176
175
146
176
172
174
176
160
170
176
176
174
174
170
173
174
175
175
173
172
174
175
175
168
171
177
175
167
173
145
171
174
174
177
173
176
171
175
170
149
171
175
173
174
172
178
170
169
153
173
176
166
177
173
176
173
157
174
176
173
173
173
174
177
178
174
149
174
170
148
174
172
172
174
176
175
174
171
176
173
171
174
174
152
178
176
176
144
147
144
146
173
173
174
171
165
171
177
172
176
175
176
145
174
172
175
175
176
174
176
163
176
137
150
169
170
173
173
176
172
177
174
176
171
173
176
176
176
173
177
175
176
173
174
173
174
175
170
171
176
177
176
174
174
176
174
175
178
177
172
174
175
173
172
175
154
170
171
173
150
175
175
172
176
176
175
177
174
176
175
177
177
175
173
172
171
173
174
177
173
170
178
175
169
174
174
171
177
172
168
175
174
144
172
173
169
170
175
173
177
172
176
171
176
176
177
178
149
177
177
159
176
174
177
173
175
170
175
173
173
157
174
177
176
175
175
174
176
178
176
171
163
178
175
175
175
175
172
175
171
156
161
174
176
177
159
176
171
172
174
172
176
163
175
178
149
175
175
170
166
174
176
175
171
156
175
175
174
173
171
172
173
174
172
174
176
177
176
173
175
177
177
175
148
174
176
173
173
160
174
171
170
176
174
172
173
176
172
171
172
172
171
171
146
177
174
173
178
176
174
176
169
174
175
175
175
172
176
161
175
174
171
172
175
175
178
175
171
171
171
174
153
172
177
171
176
138
140
140
142
143
142
147
146
172
157
170
149
165
174
176
150
154
171
174
168
175
174
177
155
175
177
176
176
175
175
176
174
177
172
177
178
172
176
174
175
174
175
161
174
175
143
167
171
172
175
171
177
171
174
175
153
176
155
173
174
164
151
174
171
176
173
170
173
158
177
176
178
166
176
173
177
178
174
175
176
177
152
161
176
175
176
175
172
176
174
174
174
176
173
175
172
177
173
172
177
176
175
173
176
175
175
169
174
146
176
177
171
175
174
176
173
177
173
150
170
145
175
174
174
173
172
177
175
172
174
174
168
175
174
174
176
172
173
173
174
176
146
147
145
167
172
175
175
178
174
172
172
173
168
174
177
174
176
177
175
174
176
163
172
175
173
171
174
174
177
177
174
174
175
171
169
174
173
175
175
173
171
175
172
175
173
176
172
176
176
175
167
166
172
173
175
172
175
173
176
169
172
176
175
177
170
170
175
175
176
173
172
170
169
172
170
176
169
174
174
176
177
174
168
144
147
147
172
168
165
169
169
174
172
171
177
173
174
175
175
175
173
169
166
171
177
170
173
174
158
142
173
175
174
173
176
173
175
169
175
177
176
175
173
175
171
169
176
174
172
176
170
174
176
176
173
175
171
176
178
176
174
176
173
163
171
173
173
167
171
173
176
165
178
177
174
170
174
170
174
175
175
175
177
174
154
148
174
174
175
170
173
172
175
171
175
169
175
174
177
177
170
173
176
175
178
177
177
153
172
154
147
177
174
174
173
178
174
177
171
144
141
169
172
173
172
170
171
175
174
175
170
170
169
175
177
175
175
176
176
143
147
173
173
175
172
175
147
141
168
157
167
176
164
173
175
177
176
171
174
174
171
174
174
149
178
165
174
173
170
176
175
147
176
175
173
173
174
170
176
171
174
172
174
172
174
178
171
175
171
173
176
175
173
168
144
152
173
176
171
173
178
176
175
176
174
175
174
176
170
173
173
178
176
171
172
155
172
175
172
175
173
175
177
173
177
161
172
175
176
173
170
172
172
174
177
177
172
175
177
173
166
177
175
152
170
173
173
176
141
141
146
142
174
172
175
163
176
174
174
177
175
158
176
170
175
170
175
173
175
170
175
171
172
171
176
171
168
178
176
172
173
173
174
173
176
173
171
175
176
175
159
169
172
173
172
174
178
177
174
173
174
172
175
151
175
173
174
175
176
172
175
170
174
177
175
176
168
177
176
166
173
172
169
170
178
171
158
171
173
171
170
176
174
171
169
172
176
158
159
176
173
177
174
176
177
158
171
176
172
177
150
175
171
174
177
172
169
170
173
173
176
169
146
174
172
170
171
173
151
169
176
176
170
171
176
176
166
170
176
172
163
177
169
173
171
172
177
176
174
167
153
175
173
173
169
174
157
171
174
172
175
172
172
176
173
167
176
175
170
175
174
173
177
174
172
166
175
172
165
143
143
168
174
171
174
153
172
158
161
174
177
174
177
175
173
174
177
171
152
149
174
