Language File-Name IP     Library         File-Path                                                      
Verilog, ILA_1.v,  ILA_1, xil_defaultlib, ../../../../rsa_attack_core.srcs/sources_1/ip/ILA_1/sim/ILA_1.v
Verilog, glbl.v,   *,     xil_defaultlib, glbl.v                                                         
