verilog xil_defaultlib "../../../../rsa_attack_core.srcs/sources_1/ip/ILA_1/sim/ILA_1.v" --include "../../../../rsa_attack_core.srcs/sources_1/ip/ILA_1/ila_v6_0_1/hdl/verilog" --include "../../../../rsa_attack_core.srcs/sources_1/ip/ILA_1/ltlib_v1_0_0/hdl/verilog" --include "../../../../rsa_attack_core.srcs/sources_1/ip/ILA_1/xsdbm_v1_1_1/hdl/verilog" --include "../../../../rsa_attack_core.srcs/sources_1/ip/ILA_1/xsdbs_v1_0_2/hdl/verilog"

verilog xil_defaultlib "glbl.v"

nosort
